﻿[
  {
    "outputFile": "css/aboutUsTemplate.css",
    "inputFile": "sass/aboutUsTemplate.scss"
  },
  {
    "outputFile": "css/main.css",
    "inputFile": "sass/main.scss"
  },
  {
    "outputFile": "css/applicants.css",
    "inputFile": "sass/applicants.scss"
  },
  {
    "outputFile": "css/HomeTemplate.css",
    "inputFile": "sass/HomeTemplate.scss"
  },
  {
    "outputFile": "css/ParentTemplate.css",
    "inputFile": "sass/ParentTemplate.scss"
  },
  {
    "outputFile": "css/ProgramDetailTemplate.css",
    "inputFile": "sass/ProgramDetailTemplate.scss"
  },
  {
    "outputFile": "css/SchoolDetailTemplate.css",
    "inputFile": "sass/SchoolDetailTemplate.scss"
  },
  {
    "outputFile": "css/upesStudentTemplate.css",
    "inputFile": "sass/upesStudentTemplate.scss"
  },
  {
    "outputFile": "css/footer.css",
    "inputFile": "sass/footer.scss"
  },
  {
    "outputFile": "css/header.css",
    "inputFile": "sass/header.scss"
  },
  {
    "outputFile": "css/showcase.css",
    "inputFile": "sass/showcase.scss"
  },
  {
    "outputFile": "css/component.css",
    "inputFile": "sass/component.scss"
  },
  {
    "outputFile": "upes-website/sass/ProgramDetailTemplate.css",
    "inputFile": "upes-website/sass/ProgramDetailTemplate.scss"
  },
  {
    "outputFile": "upes-website/sass/header.css",
    "inputFile": "upes-website/sass/header.scss"
  }
]