<?xml version="1.0" encoding="utf-8"?>
<!-- Generator: Adobe Illustrator 22.0.1, SVG Export Plug-In . SVG Version: 6.00 Build 0)  -->
<svg version="1.1" id="Layer_1" xmlns="http://www.w3.org/2000/svg" xmlns:xlink="http://www.w3.org/1999/xlink" x="0px" y="0px"
	 viewBox="0 0 49.6 49.6" style="enable-background:new 0 0 49.6 49.6;" xml:space="preserve">
<style type="text/css">
	.st0{clip-path:url(#SVGID_2_);}
</style>
<g>
	<defs>
		<rect id="SVGID_1_" x="0" y="0" width="49.6" height="49.6"/>
	</defs>
	<clipPath id="SVGID_2_">
		<use xlink:href="#SVGID_1_"  style="overflow:visible;"/>
	</clipPath>
	<path class="st0" d="M24.8,0C11.1,0,0,11.1,0,24.8c0,13.7,11.1,24.8,24.8,24.8s24.8-11.1,24.8-24.8C49.6,11.1,38.5,0,24.8,0
		 M24.8,48C12,48,1.6,37.6,1.6,24.8S12,1.6,24.8,1.6c12.5,0,22.8,10,23.2,22.4l-26,0l4.5-4.5l-1.1-1.1L19,24.7l6.5,6.5l1.1-1.1
		L22,25.5L48,25.6C47.6,38,37.3,48,24.8,48"/>
</g>
</svg>
